module bitbucket.org/uamana/fsn

go 1.15

require (
	github.com/anmitsu/go-shlex v0.0.0-20200514113438-38f4b401e2be
	github.com/fsnotify/fsnotify v1.4.9
	github.com/google/shlex v0.0.0-20191202100458-e7afc7fbc510
	golang.org/x/sys v0.0.0-20201005065044-765f4ea38db3 // indirect
)
